INFO 14:58:04:347 SampleGame: address of server localhost/127.0.0.1:1000
INFO 14:58:05:097 SampleGame: OS: Windows 10
INFO 14:58:05:199 GameTaskManager: initialized.
INFO 14:58:05:215 ServerPacketType: server packets prepared.
INFO 14:58:05:216 ClientPacketType: client packets prepared.
INFO 14:58:05:229 Network: connect to server localhost/127.0.0.1:1000
INFO 14:58:05:234 Network: initialized.
WARNING 14:58:06:510 GameConnectHandler: Exception : java.io.IOException: Удаленный компьютер отклонил это сетевое подключение.
 : stack trace:
org.sample.client.network.model.GameConnectHandler.onFailed(GameConnectHandler.java:60)
rlib.network.client.ConnectHandler.failed(ConnectHandler.java:20)
rlib.network.client.ConnectHandler.failed(ConnectHandler.java:11)
sun.nio.ch.Invoker.invokeUnchecked(Invoker.java:128)
sun.nio.ch.Invoker.invokeDirect(Invoker.java:157)
sun.nio.ch.Invoker.invoke(Invoker.java:185)
sun.nio.ch.Invoker.invoke(Invoker.java:297)
sun.nio.ch.WindowsAsynchronousSocketChannelImpl$ConnectTask.failed(WindowsAsynchronousSocketChannelImpl.java:302)
sun.nio.ch.Iocp$EventHandlerTask.run(Iocp.java:399)
sun.nio.ch.AsynchronousChannelGroupImpl$1.run(AsynchronousChannelGroupImpl.java:112)
java.util.concurrent.ThreadPoolExecutor.runWorker(ThreadPoolExecutor.java:1142)
java.util.concurrent.ThreadPoolExecutor$Worker.run(ThreadPoolExecutor.java:617)
java.lang.Thread.run(Thread.java:745)

