INFO 15:12:01:617 SampleGame: address of server localhost/127.0.0.1:1000
INFO 15:12:02:431 SampleGame: OS: Windows 10
INFO 15:12:02:531 GameTaskManager: initialized.
INFO 15:12:02:546 ServerPacketType: server packets prepared.
INFO 15:12:02:547 ClientPacketType: client packets prepared.
INFO 15:12:02:558 Network: connect to server localhost/127.0.0.1:1000
INFO 15:12:02:563 Network: initialized.
WARNING 15:12:03:846 GameConnectHandler: Exception : java.io.IOException: Удаленный компьютер отклонил это сетевое подключение.
 : stack trace:
org.sample.client.network.model.GameConnectHandler.onFailed(GameConnectHandler.java:60)
rlib.network.client.ConnectHandler.failed(ConnectHandler.java:20)
rlib.network.client.ConnectHandler.failed(ConnectHandler.java:11)
sun.nio.ch.Invoker.invokeUnchecked(Invoker.java:128)
sun.nio.ch.Invoker.invokeDirect(Invoker.java:157)
sun.nio.ch.Invoker.invoke(Invoker.java:185)
sun.nio.ch.Invoker.invoke(Invoker.java:297)
sun.nio.ch.WindowsAsynchronousSocketChannelImpl$ConnectTask.failed(WindowsAsynchronousSocketChannelImpl.java:302)
sun.nio.ch.Iocp$EventHandlerTask.run(Iocp.java:399)
sun.nio.ch.AsynchronousChannelGroupImpl$1.run(AsynchronousChannelGroupImpl.java:112)
java.util.concurrent.ThreadPoolExecutor.runWorker(ThreadPoolExecutor.java:1142)
java.util.concurrent.ThreadPoolExecutor$Worker.run(ThreadPoolExecutor.java:617)
java.lang.Thread.run(Thread.java:745)

